[{
	"id": "1",
	"title": "Gallery Content 1",
    "body": [{
      "value": "<p>Lorem ipsum dolor sit amet, consectetur adipiscing elit. Aenean sagittis lobortis justo in rhoncus. Mauris eget posuere nibh. Donec fermentum ipsum consectetur cursus scelerisque. Mauris tincidunt euismod iaculis. Duis ornare odio maximus, rutrum orci eu, lobortis turpis. Maecenas lacus ante, fringilla vitae tortor non, mollis consectetur nunc. Vivamus in odio et nibh placerat posuere volutpat non orci. Sed in ultrices metus, sit amet vulputate tellus. Proin eleifend, ligula vitae luctus blandit, mi sem efficitur odio, quis suscipit leo lacus vestibulum diam. Interdum et malesuada fames ac ante ipsum primis in faucibus. In hac habitasse platea dictumst.</p>",
      "format": "full_html"
    }],
	"paragraphs": [{
		"id": "1",
		"title": "Slide 1",
		"filename": "yale_lineup_1500.jpg",
		"blurb": "Aenean sagittis lobortis justo in rhoncus. Mauris eget posuere nibh. Donec fermentum ipsum consectetur cursus scelerisque. Mauris tincidunt euismod iaculis. Duis ornare odio maximus, rutrum orci eu, lobortis turpis.",
		"link_href": "http://www.yale.edu",
		"link_text": "Yale"
	}, {
		"id": "2",
        "title": "Slide 2",
		"filename": "berkeley_student_1500.jpg",
		"blurb": "Mauris tincidunt euismod iaculis. Duis ornare odio maximus, rutrum orci eu, lobortis turpis. Maecenas lacus ante, fringilla vitae tortor non, mollis consectetur nunc.",
		"link_href": "http://www.yale.edu",
		"link_text": "Yale"
	}]
}, {
	"id": "2",
	"title": "Gallery Content 2",
    "body": [{
      "value": "<p>Aliquam eget enim quis augue euismod posuere vitae non enim. Integer tincidunt eros aliquet, finibus ligula eget, interdum lectus. Vivamus vulputate augue sem, nec lobortis velit bibendum consequat. Maecenas elementum tincidunt varius. Quisque lacinia lorem non tellus pulvinar, feugiat blandit sem cursus. Nulla pellentesque urna nibh, egestas sagittis turpis auctor rhoncus. Donec massa nibh, dignissim in nunc et, suscipit consequat eros. Donec quis massa ut magna elementum ultricies. Maecenas mollis orci eget purus elementum, nec vulputate felis pulvinar.</p>",
      "format": "full_html"
    }],
	"paragraphs": [{
		"id": "3",
        "title": "Slide 3",
		"filename": "commencement_2015_1500.jpg",
		"blurb": "Vestibulum vehicula maximus elit, in aliquet eros cursus a. Fusce elit turpis, pretium consectetur porttitor at, fringilla id arcu. Donec a lorem diam. Sed quis sagittis lorem, eu iaculis est.",
		"link_href": "http://www.yale.edu",
		"link_text": "Yale"
	}, {
		"id": "4",
		"title": "Slide 4",
		"filename": "jonathan_edwards_1500.jpg",
		"blurb": "Donec massa nibh, dignissim in nunc et, suscipit consequat eros. Donec quis massa ut magna elementum ultricies.",
		"link_href": "http://www.yale.edu",
		"link_text": "Yale"
	}]
}]
